"V1","V2","V3","V4","V5","V6","V7","V8","V9","V10","V11","V12","V13","V14","V15","V16","V17","V18","V19","V20","V21","V22","V23","V24"
0.449438202247191,0.4,0.268292682926829,0.222222222222222,0.135802469135802,0.121951219512195,0.0886075949367089,0.141025641025641,0.075,0.0465116279069767,0.0632911392405063,0.015625,0.0533333333333333,0.0140845070422535,0.0447761194029851,0.0606060606060606,0.0547945205479452,0.0338983050847458,0.0153846153846154,0.0163934426229508,0,0.0175438596491228,0,0
0.146067415730337,0.129411764705882,0.146341463414634,0.0740740740740741,0.0987654320987654,0.0609756097560976,0.10126582278481,0.0769230769230769,0.0875,0.0697674418604651,0.0253164556962025,0.03125,0.04,0,0.0298507462686567,0.0151515151515152,0.0273972602739726,0,0,0,0,0,0.024390243902439,0.032258064516129
0.0898876404494382,0.0823529411764706,0.134146341463415,0.135802469135802,0.160493827160494,0.121951219512195,0.0506329113924051,0.0641025641025641,0.025,0.0232558139534884,0.0759493670886076,0.046875,0.0266666666666667,0.028169014084507,0.0149253731343284,0,0.0273972602739726,0,0.0153846153846154,0.0163934426229508,0,0.0175438596491228,0,0.129032258064516
0.0898876404494382,0.0823529411764706,0.0731707317073171,0.172839506172839,0.0987654320987654,0.0731707317073171,0.113924050632911,0.0512820512820513,0.0125,0.0465116279069767,0.0632911392405063,0.03125,0.0533333333333333,0.0563380281690141,0.0149253731343284,0.0303030303030303,0.0136986301369863,0.0338983050847458,0.0153846153846154,0.0327868852459016,0,0.0175438596491228,0,0.032258064516129
0.0561797752808989,0.0470588235294118,0.0609756097560976,0.111111111111111,0.0987654320987654,0.170731707317073,0.10126582278481,0.0641025641025641,0.075,0.0697674418604651,0.0506329113924051,0.078125,0.0533333333333333,0.0422535211267606,0.0149253731343284,0.0151515151515152,0.0273972602739726,0,0.0153846153846154,0,0,0,0.024390243902439,0
0.0337078651685393,0.0352941176470588,0.0487804878048781,0.0493827160493827,0.0493827160493827,0.0853658536585366,0.0632911392405063,0.102564102564103,0.1,0.127906976744186,0.126582278481013,0.0625,0.0666666666666667,0.0563380281690141,0.0597014925373134,0.0454545454545455,0.0273972602739726,0.0169491525423729,0,0.0163934426229508,0,0,0,0
0.0224719101123595,0.0470588235294118,0.0365853658536585,0.0740740740740741,0.0617283950617284,0.024390243902439,0.0759493670886076,0.0769230769230769,0.075,0.104651162790698,0.0253164556962025,0.046875,0.0933333333333333,0.0704225352112676,0.104477611940299,0.106060606060606,0.0547945205479452,0.0169491525423729,0.0153846153846154,0.0163934426229508,0,0.0526315789473684,0,0
0.0112359550561798,0.0352941176470588,0.0975609756097561,0.0123456790123457,0.0740740740740741,0.0365853658536585,0.126582278481013,0.0897435897435897,0.125,0.0813953488372093,0.0253164556962025,0.0625,0.146666666666667,0.0422535211267606,0.0746268656716418,0.0757575757575758,0.0273972602739726,0,0.0307692307692308,0,0,0.0175438596491228,0.024390243902439,0.032258064516129
0.0224719101123595,0.0235294117647059,0.0121951219512195,0.037037037037037,0.0740740740740741,0.0487804878048781,0.0506329113924051,0.0128205128205128,0.0875,0.0697674418604651,0.139240506329114,0.109375,0.04,0.0985915492957746,0.0597014925373134,0.0454545454545455,0.150684931506849,0,0.0153846153846154,0,0,0.0175438596491228,0.024390243902439,0
0.0112359550561798,0.0352941176470588,0.0609756097560976,0.0493827160493827,0.0493827160493827,0.0365853658536585,0.0379746835443038,0.0384615384615385,0.0625,0.0697674418604651,0.151898734177215,0.046875,0.04,0.0845070422535211,0.104477611940299,0.121212121212121,0.0273972602739726,0.0677966101694915,0.0307692307692308,0.0491803278688525,0.0178571428571429,0.0175438596491228,0,0
0.0224719101123595,0.0235294117647059,0.024390243902439,0.0123456790123457,0.0493827160493827,0.121951219512195,0.0759493670886076,0.0384615384615385,0.025,0.0697674418604651,0.0253164556962025,0.109375,0.106666666666667,0.112676056338028,0.0447761194029851,0.0454545454545455,0.10958904109589,0.11864406779661,0.0615384615384615,0,0,0.0175438596491228,0,0.032258064516129
0.0112359550561798,0.0235294117647059,0.0365853658536585,0.0246913580246914,0.0123456790123457,0.0365853658536585,0,0.0641025641025641,0.05,0.0232558139534884,0.0886075949367089,0.078125,0.106666666666667,0.0845070422535211,0.104477611940299,0.0909090909090909,0.0684931506849315,0.101694915254237,0.0461538461538462,0.0655737704918033,0.0892857142857143,0.0175438596491228,0.024390243902439,0
0.0112359550561798,0.0117647058823529,0,0,0.0123456790123457,0.024390243902439,0.0506329113924051,0.0384615384615385,0.0625,0.0581395348837209,0.0253164556962025,0.09375,0.106666666666667,0.0704225352112676,0.0597014925373134,0.0757575757575758,0.10958904109589,0.0847457627118644,0.0461538461538462,0.0819672131147541,0.0714285714285714,0.0701754385964912,0.0731707317073171,0.0645161290322581
0.0112359550561798,0.0235294117647059,0,0.0246913580246914,0,0.0365853658536585,0.0253164556962025,0.0256410256410256,0.05,0.0348837209302326,0.0253164556962025,0.0625,0.0533333333333333,0.0845070422535211,0.0746268656716418,0.106060606060606,0.0410958904109589,0.0677966101694915,0.0923076923076923,0.163934426229508,0.0357142857142857,0.0526315789473684,0.0731707317073171,0.032258064516129
0,0,0,0,0,0,0.0126582278481013,0.0256410256410256,0.0375,0.0465116279069767,0.0253164556962025,0,0,0.0845070422535211,0.0895522388059701,0.0303030303030303,0.150684931506849,0.11864406779661,0.123076923076923,0.0491803278688525,0.160714285714286,0.0526315789473684,0.0731707317073171,0.032258064516129
0.0112359550561798,0,0,0,0.0123456790123457,0,0.0126582278481013,0,0.025,0.0465116279069767,0.0253164556962025,0.03125,0.0133333333333333,0.028169014084507,0.0298507462686567,0.0454545454545455,0.0136986301369863,0.135593220338983,0.169230769230769,0.114754098360656,0.142857142857143,0.157894736842105,0.170731707317073,0.0967741935483871
0,0,0,0,0.0123456790123457,0,0.0126582278481013,0.0384615384615385,0,0.0116279069767442,0.0126582278481013,0.03125,0,0,0.0447761194029851,0.0303030303030303,0.0410958904109589,0.101694915254237,0.123076923076923,0.147540983606557,0.125,0.087719298245614,0.0975609756097561,0.129032258064516
0,0,0,0,0,0,0,0.0384615384615385,0.0125,0,0,0.015625,0,0.0422535211267606,0,0.0151515151515152,0.0136986301369863,0.0847457627118644,0.138461538461538,0.0491803278688525,0.125,0.210526315789474,0.0731707317073171,0.129032258064516
0,0,0,0,0,0,0,0,0.0125,0,0.0126582278481013,0.015625,0,0,0.0298507462686567,0,0.0136986301369863,0.0169491525423729,0.0461538461538462,0.114754098360656,0.178571428571429,0.0526315789473684,0.121951219512195,0.0967741935483871
0,0,0,0,0,0,0,0,0,0,0,0.03125,0,0,0,0.0151515151515152,0,0,0,0.0491803278688525,0.0357142857142857,0.087719298245614,0.0487804878048781,0.129032258064516
0,0,0,0,0,0,0,0.0128205128205128,0,0,0.0126582278481013,0,0,0,0,0.0151515151515152,0,0,0,0.0163934426229508,0.0178571428571429,0.0175438596491228,0.121951219512195,0
0,0,0,0,0,0,0,0,0,0,0,0,0,0,0,0.0151515151515152,0,0,0,0,0,0.0175438596491228,0,0.032258064516129
0,0,0,0,0,0,0,0,0,0,0,0,0,0,0,0,0,0,0,0,0,0,0.024390243902439,0
0,0,0,0,0,0,0,0,0,0,0,0,0,0,0,0,0,0,0,0,0,0,0,0
0,0,0,0,0,0,0,0,0,0,0,0,0,0,0,0,0,0,0,0,0,0,0,0
